{
  "apps": [
    {
      "id": "hello_world",
      "name": "Hello World",
      "problem": {
        "objects": {
        },
        "init": [],
        "goal": ["finished_first_task", "finished_second_task"]
      },
      "actions": [
        {
          "name": "first_task",
          "duration": 1,
          "conditions": [],
          "effects": ["finished_first_task"],
          "totalCost": 1,
          "requirements": [],
          "bpmn": "<?xml version=\"1.0\" encoding=\"UTF-8\" standalone=\"yes\"?>\n<definitions xmlns=\"http://www.omg.org/spec/BPMN/20100524/MODEL\" xmlns:activiti=\"http://activiti.org/bpmn\" xmlns:bpmndi=\"http://www.omg.org/spec/BPMN/20100524/DI\" xmlns:omgdc=\"http://www.omg.org/spec/DD/20100524/DC\" xmlns:omgdi=\"http://www.omg.org/spec/DD/20100524/DI\" xmlns:tns=\"http://www.activiti.org/test\" xmlns:xsd=\"http://www.w3.org/2001/XMLSchema\" xmlns:xsi=\"http://www.w3.org/2001/XMLSchema-instance\" expressionLanguage=\"http://www.w3.org/1999/XPath\" id=\"m1588663348041\" name=\"\" targetNamespace=\"http://www.activiti.org/test\" typeLanguage=\"http://www.w3.org/2001/XMLSchema\">\n  <process id=\"myProcess_1\" isClosed=\"false\" isExecutable=\"true\" processType=\"None\">\n    <startEvent id=\"_2\" name=\"StartEvent\"/>\n    <serviceTask activiti:async=\"true\" activiti:class=\"ee.ut.cs.se.mt.helloworld.ui.FirstTask\" activiti:exclusive=\"true\" id=\"_3\" name=\"First Task\"/>\n    <endEvent id=\"_4\" name=\"EndEvent\"/>\n    <sequenceFlow id=\"_5\" sourceRef=\"_2\" targetRef=\"_3\"/>\n    <sequenceFlow id=\"_6\" sourceRef=\"_3\" targetRef=\"_4\"/>\n  </process>\n  <bpmndi:BPMNDiagram documentation=\"background=#3C3F41;count=1;horizontalcount=1;orientation=0;width=842.4;height=1195.2;imageableWidth=832.4;imageableHeight=1185.2;imageableX=5.0;imageableY=5.0\" id=\"Diagram-_1\" name=\"New Diagram\">\n    <bpmndi:BPMNPlane bpmnElement=\"myProcess_1\">\n      <bpmndi:BPMNShape bpmnElement=\"_2\" id=\"Shape-_2\">\n        <omgdc:Bounds height=\"32.0\" width=\"32.0\" x=\"120.0\" y=\"190.0\"/>\n        <bpmndi:BPMNLabel>\n          <omgdc:Bounds height=\"32.0\" width=\"32.0\" x=\"0.0\" y=\"0.0\"/>\n        </bpmndi:BPMNLabel>\n      </bpmndi:BPMNShape>\n      <bpmndi:BPMNShape bpmnElement=\"_3\" id=\"Shape-_3\">\n        <omgdc:Bounds height=\"55.0\" width=\"85.0\" x=\"215.0\" y=\"185.0\"/>\n        <bpmndi:BPMNLabel>\n          <omgdc:Bounds height=\"55.0\" width=\"85.0\" x=\"0.0\" y=\"0.0\"/>\n        </bpmndi:BPMNLabel>\n      </bpmndi:BPMNShape>\n      <bpmndi:BPMNShape bpmnElement=\"_4\" id=\"Shape-_4\">\n        <omgdc:Bounds height=\"32.0\" width=\"32.0\" x=\"355.0\" y=\"190.0\"/>\n        <bpmndi:BPMNLabel>\n          <omgdc:Bounds height=\"32.0\" width=\"32.0\" x=\"0.0\" y=\"0.0\"/>\n        </bpmndi:BPMNLabel>\n      </bpmndi:BPMNShape>\n      <bpmndi:BPMNEdge bpmnElement=\"_5\" id=\"BPMNEdge__5\" sourceElement=\"_2\" targetElement=\"_3\">\n        <omgdi:waypoint x=\"152.0\" y=\"206.0\"/>\n        <omgdi:waypoint x=\"215.0\" y=\"212.5\"/>\n        <bpmndi:BPMNLabel>\n          <omgdc:Bounds height=\"0.0\" width=\"0.0\" x=\"0.0\" y=\"0.0\"/>\n        </bpmndi:BPMNLabel>\n      </bpmndi:BPMNEdge>\n      <bpmndi:BPMNEdge bpmnElement=\"_6\" id=\"BPMNEdge__6\" sourceElement=\"_3\" targetElement=\"_4\">\n        <omgdi:waypoint x=\"300.0\" y=\"212.5\"/>\n        <omgdi:waypoint x=\"355.0\" y=\"206.0\"/>\n        <bpmndi:BPMNLabel>\n          <omgdc:Bounds height=\"0.0\" width=\"0.0\" x=\"0.0\" y=\"0.0\"/>\n        </bpmndi:BPMNLabel>\n      </bpmndi:BPMNEdge>\n    </bpmndi:BPMNPlane>\n  </bpmndi:BPMNDiagram>\n</definitions>"
        },
        {
          "name": "second_task",
          "duration": 1,
          "conditions": [],
          "effects": ["finished_second_task"],
          "totalCost": 1,
          "requirements": [],
          "bpmn": "<?xml version=\"1.0\" encoding=\"UTF-8\" standalone=\"yes\"?>\n<definitions xmlns=\"http://www.omg.org/spec/BPMN/20100524/MODEL\" xmlns:activiti=\"http://activiti.org/bpmn\" xmlns:bpmndi=\"http://www.omg.org/spec/BPMN/20100524/DI\" xmlns:omgdc=\"http://www.omg.org/spec/DD/20100524/DC\" xmlns:omgdi=\"http://www.omg.org/spec/DD/20100524/DI\" xmlns:tns=\"http://www.activiti.org/test\" xmlns:xsd=\"http://www.w3.org/2001/XMLSchema\" xmlns:xsi=\"http://www.w3.org/2001/XMLSchema-instance\" expressionLanguage=\"http://www.w3.org/1999/XPath\" id=\"m1588663348041\" name=\"\" targetNamespace=\"http://www.activiti.org/test\" typeLanguage=\"http://www.w3.org/2001/XMLSchema\">\n  <process id=\"myProcess_1\" isClosed=\"false\" isExecutable=\"true\" processType=\"None\">\n    <startEvent id=\"_2\" name=\"StartEvent\"/>\n    <serviceTask activiti:async=\"true\" activiti:class=\"ee.ut.cs.se.mt.helloworld.ui.SecondTask\" activiti:exclusive=\"true\" id=\"_3\" name=\"Second Task\"/>\n    <endEvent id=\"_4\" name=\"EndEvent\"/>\n    <sequenceFlow id=\"_5\" sourceRef=\"_2\" targetRef=\"_3\"/>\n    <sequenceFlow id=\"_6\" sourceRef=\"_3\" targetRef=\"_4\"/>\n  </process>\n  <bpmndi:BPMNDiagram documentation=\"background=#3C3F41;count=1;horizontalcount=1;orientation=0;width=842.4;height=1195.2;imageableWidth=832.4;imageableHeight=1185.2;imageableX=5.0;imageableY=5.0\" id=\"Diagram-_1\" name=\"New Diagram\">\n    <bpmndi:BPMNPlane bpmnElement=\"myProcess_1\">\n      <bpmndi:BPMNShape bpmnElement=\"_2\" id=\"Shape-_2\">\n        <omgdc:Bounds height=\"32.0\" width=\"32.0\" x=\"120.0\" y=\"190.0\"/>\n        <bpmndi:BPMNLabel>\n          <omgdc:Bounds height=\"32.0\" width=\"32.0\" x=\"0.0\" y=\"0.0\"/>\n        </bpmndi:BPMNLabel>\n      </bpmndi:BPMNShape>\n      <bpmndi:BPMNShape bpmnElement=\"_3\" id=\"Shape-_3\">\n        <omgdc:Bounds height=\"55.0\" width=\"85.0\" x=\"215.0\" y=\"185.0\"/>\n        <bpmndi:BPMNLabel>\n          <omgdc:Bounds height=\"55.0\" width=\"85.0\" x=\"0.0\" y=\"0.0\"/>\n        </bpmndi:BPMNLabel>\n      </bpmndi:BPMNShape>\n      <bpmndi:BPMNShape bpmnElement=\"_4\" id=\"Shape-_4\">\n        <omgdc:Bounds height=\"32.0\" width=\"32.0\" x=\"355.0\" y=\"190.0\"/>\n        <bpmndi:BPMNLabel>\n          <omgdc:Bounds height=\"32.0\" width=\"32.0\" x=\"0.0\" y=\"0.0\"/>\n        </bpmndi:BPMNLabel>\n      </bpmndi:BPMNShape>\n      <bpmndi:BPMNEdge bpmnElement=\"_5\" id=\"BPMNEdge__5\" sourceElement=\"_2\" targetElement=\"_3\">\n        <omgdi:waypoint x=\"152.0\" y=\"206.0\"/>\n        <omgdi:waypoint x=\"215.0\" y=\"212.5\"/>\n        <bpmndi:BPMNLabel>\n          <omgdc:Bounds height=\"0.0\" width=\"0.0\" x=\"0.0\" y=\"0.0\"/>\n        </bpmndi:BPMNLabel>\n      </bpmndi:BPMNEdge>\n      <bpmndi:BPMNEdge bpmnElement=\"_6\" id=\"BPMNEdge__6\" sourceElement=\"_3\" targetElement=\"_4\">\n        <omgdi:waypoint x=\"300.0\" y=\"212.5\"/>\n        <omgdi:waypoint x=\"355.0\" y=\"206.0\"/>\n        <bpmndi:BPMNLabel>\n          <omgdc:Bounds height=\"0.0\" width=\"0.0\" x=\"0.0\" y=\"0.0\"/>\n        </bpmndi:BPMNLabel>\n      </bpmndi:BPMNEdge>\n    </bpmndi:BPMNPlane>\n  </bpmndi:BPMNDiagram>\n</definitions>\n"
        }
      ]
    },
    {
      "id": "tire_change",
      "name": "Tire Change",
      "problem": {
        "objects": {
        },
        "init": [],
        "goal": ["tire_is_changed"]
      },
      "actions": [
        {
          "name": "park_the_car",
          "duration": 1,
          "conditions": [],
          "effects": ["car_is_parked"],
          "totalCost": 2,
          "requirements": [],
          "bpmn": "<?xml version=\"1.0\" encoding=\"UTF-8\" standalone=\"yes\"?>\n<definitions xmlns=\"http://www.omg.org/spec/BPMN/20100524/MODEL\" xmlns:activiti=\"http://activiti.org/bpmn\" xmlns:bpmndi=\"http://www.omg.org/spec/BPMN/20100524/DI\" xmlns:omgdc=\"http://www.omg.org/spec/DD/20100524/DC\" xmlns:omgdi=\"http://www.omg.org/spec/DD/20100524/DI\" xmlns:tns=\"http://www.activiti.org/test\" xmlns:xsd=\"http://www.w3.org/2001/XMLSchema\" xmlns:xsi=\"http://www.w3.org/2001/XMLSchema-instance\" expressionLanguage=\"http://www.w3.org/1999/XPath\" id=\"m1588685470672\" name=\"\" targetNamespace=\"http://www.activiti.org/test\" typeLanguage=\"http://www.w3.org/2001/XMLSchema\">\n  <process id=\"myProcess_1\" isClosed=\"false\" isExecutable=\"true\" processType=\"None\">\n    <startEvent id=\"_2\" name=\"StartEvent\"/>\n    <endEvent id=\"_3\" name=\"EndEvent\"/>\n    <serviceTask activiti:class=\"ee.ut.cs.se.mt.tirechange.ui.ParkTheCarTask\" activiti:exclusive=\"true\" id=\"_4\" name=\"Step1 Task\"/>\n    <sequenceFlow id=\"_5\" sourceRef=\"_2\" targetRef=\"_4\"/>\n    <sequenceFlow id=\"_6\" sourceRef=\"_4\" targetRef=\"_3\"/>\n  </process>\n  <bpmndi:BPMNDiagram documentation=\"background=#3C3F41;count=1;horizontalcount=1;orientation=0;width=842.4;height=1195.2;imageableWidth=832.4;imageableHeight=1185.2;imageableX=5.0;imageableY=5.0\" id=\"Diagram-_1\" name=\"New Diagram\">\n    <bpmndi:BPMNPlane bpmnElement=\"myProcess_1\">\n      <bpmndi:BPMNShape bpmnElement=\"_2\" id=\"Shape-_2\">\n        <omgdc:Bounds height=\"32.0\" width=\"32.0\" x=\"120.0\" y=\"120.0\"/>\n        <bpmndi:BPMNLabel>\n          <omgdc:Bounds height=\"32.0\" width=\"32.0\" x=\"0.0\" y=\"0.0\"/>\n        </bpmndi:BPMNLabel>\n      </bpmndi:BPMNShape>\n      <bpmndi:BPMNShape bpmnElement=\"_3\" id=\"Shape-_3\">\n        <omgdc:Bounds height=\"32.0\" width=\"32.0\" x=\"370.0\" y=\"135.0\"/>\n        <bpmndi:BPMNLabel>\n          <omgdc:Bounds height=\"32.0\" width=\"32.0\" x=\"0.0\" y=\"0.0\"/>\n        </bpmndi:BPMNLabel>\n      </bpmndi:BPMNShape>\n      <bpmndi:BPMNShape bpmnElement=\"_4\" id=\"Shape-_4\">\n        <omgdc:Bounds height=\"55.0\" width=\"85.0\" x=\"215.0\" y=\"115.0\"/>\n        <bpmndi:BPMNLabel>\n          <omgdc:Bounds height=\"55.0\" width=\"85.0\" x=\"0.0\" y=\"0.0\"/>\n        </bpmndi:BPMNLabel>\n      </bpmndi:BPMNShape>\n      <bpmndi:BPMNEdge bpmnElement=\"_5\" id=\"BPMNEdge__5\" sourceElement=\"_2\" targetElement=\"_4\">\n        <omgdi:waypoint x=\"152.0\" y=\"136.0\"/>\n        <omgdi:waypoint x=\"215.0\" y=\"142.5\"/>\n        <bpmndi:BPMNLabel>\n          <omgdc:Bounds height=\"0.0\" width=\"0.0\" x=\"0.0\" y=\"0.0\"/>\n        </bpmndi:BPMNLabel>\n      </bpmndi:BPMNEdge>\n      <bpmndi:BPMNEdge bpmnElement=\"_6\" id=\"BPMNEdge__6\" sourceElement=\"_4\" targetElement=\"_3\">\n        <omgdi:waypoint x=\"300.0\" y=\"142.5\"/>\n        <omgdi:waypoint x=\"370.0\" y=\"151.0\"/>\n        <bpmndi:BPMNLabel>\n          <omgdc:Bounds height=\"0.0\" width=\"0.0\" x=\"0.0\" y=\"0.0\"/>\n        </bpmndi:BPMNLabel>\n      </bpmndi:BPMNEdge>\n    </bpmndi:BPMNPlane>\n  </bpmndi:BPMNDiagram>\n</definitions>\n"
        },
        {
          "name": "park_the_car_image",
          "duration": 2,
          "conditions": [],
          "effects": ["car_is_parked"],
          "totalCost": 1,
          "requirements": [],
          "bpmn": "<?xml version=\"1.0\" encoding=\"UTF-8\" standalone=\"yes\"?>\n<definitions xmlns=\"http://www.omg.org/spec/BPMN/20100524/MODEL\" xmlns:activiti=\"http://activiti.org/bpmn\" xmlns:bpmndi=\"http://www.omg.org/spec/BPMN/20100524/DI\" xmlns:omgdc=\"http://www.omg.org/spec/DD/20100524/DC\" xmlns:omgdi=\"http://www.omg.org/spec/DD/20100524/DI\" xmlns:tns=\"http://www.activiti.org/test\" xmlns:xsd=\"http://www.w3.org/2001/XMLSchema\" xmlns:xsi=\"http://www.w3.org/2001/XMLSchema-instance\" expressionLanguage=\"http://www.w3.org/1999/XPath\" id=\"m1588685470672\" name=\"\" targetNamespace=\"http://www.activiti.org/test\" typeLanguage=\"http://www.w3.org/2001/XMLSchema\">\n  <process id=\"myProcess_1\" isClosed=\"false\" isExecutable=\"true\" processType=\"None\">\n    <startEvent id=\"_2\" name=\"StartEvent\"/>\n    <endEvent id=\"_3\" name=\"EndEvent\"/>\n    <serviceTask activiti:class=\"ee.ut.cs.se.mt.tirechange.ui.ParkTheCarImageTask\" activiti:exclusive=\"true\" id=\"_4\" name=\"Step1 Task\"/>\n    <sequenceFlow id=\"_5\" sourceRef=\"_2\" targetRef=\"_4\"/>\n    <sequenceFlow id=\"_6\" sourceRef=\"_4\" targetRef=\"_3\"/>\n  </process>\n  <bpmndi:BPMNDiagram documentation=\"background=#3C3F41;count=1;horizontalcount=1;orientation=0;width=842.4;height=1195.2;imageableWidth=832.4;imageableHeight=1185.2;imageableX=5.0;imageableY=5.0\" id=\"Diagram-_1\" name=\"New Diagram\">\n    <bpmndi:BPMNPlane bpmnElement=\"myProcess_1\">\n      <bpmndi:BPMNShape bpmnElement=\"_2\" id=\"Shape-_2\">\n        <omgdc:Bounds height=\"32.0\" width=\"32.0\" x=\"120.0\" y=\"120.0\"/>\n        <bpmndi:BPMNLabel>\n          <omgdc:Bounds height=\"32.0\" width=\"32.0\" x=\"0.0\" y=\"0.0\"/>\n        </bpmndi:BPMNLabel>\n      </bpmndi:BPMNShape>\n      <bpmndi:BPMNShape bpmnElement=\"_3\" id=\"Shape-_3\">\n        <omgdc:Bounds height=\"32.0\" width=\"32.0\" x=\"370.0\" y=\"135.0\"/>\n        <bpmndi:BPMNLabel>\n          <omgdc:Bounds height=\"32.0\" width=\"32.0\" x=\"0.0\" y=\"0.0\"/>\n        </bpmndi:BPMNLabel>\n      </bpmndi:BPMNShape>\n      <bpmndi:BPMNShape bpmnElement=\"_4\" id=\"Shape-_4\">\n        <omgdc:Bounds height=\"55.0\" width=\"85.0\" x=\"215.0\" y=\"115.0\"/>\n        <bpmndi:BPMNLabel>\n          <omgdc:Bounds height=\"55.0\" width=\"85.0\" x=\"0.0\" y=\"0.0\"/>\n        </bpmndi:BPMNLabel>\n      </bpmndi:BPMNShape>\n      <bpmndi:BPMNEdge bpmnElement=\"_5\" id=\"BPMNEdge__5\" sourceElement=\"_2\" targetElement=\"_4\">\n        <omgdi:waypoint x=\"152.0\" y=\"136.0\"/>\n        <omgdi:waypoint x=\"215.0\" y=\"142.5\"/>\n        <bpmndi:BPMNLabel>\n          <omgdc:Bounds height=\"0.0\" width=\"0.0\" x=\"0.0\" y=\"0.0\"/>\n        </bpmndi:BPMNLabel>\n      </bpmndi:BPMNEdge>\n      <bpmndi:BPMNEdge bpmnElement=\"_6\" id=\"BPMNEdge__6\" sourceElement=\"_4\" targetElement=\"_3\">\n        <omgdi:waypoint x=\"300.0\" y=\"142.5\"/>\n        <omgdi:waypoint x=\"370.0\" y=\"151.0\"/>\n        <bpmndi:BPMNLabel>\n          <omgdc:Bounds height=\"0.0\" width=\"0.0\" x=\"0.0\" y=\"0.0\"/>\n        </bpmndi:BPMNLabel>\n      </bpmndi:BPMNEdge>\n    </bpmndi:BPMNPlane>\n  </bpmndi:BPMNDiagram>\n</definitions>\n"
        },
        {
          "name": "raise_the_jack",
          "duration": 1,
          "conditions": ["car_is_parked"],
          "effects": ["jack_raised"],
          "totalCost": 1,
          "requirements": ["has_modern_unibody"],
          "bpmn": "<?xml version=\"1.0\" encoding=\"UTF-8\" standalone=\"yes\"?>\n<definitions xmlns=\"http://www.omg.org/spec/BPMN/20100524/MODEL\" xmlns:activiti=\"http://activiti.org/bpmn\" xmlns:bpmndi=\"http://www.omg.org/spec/BPMN/20100524/DI\" xmlns:omgdc=\"http://www.omg.org/spec/DD/20100524/DC\" xmlns:omgdi=\"http://www.omg.org/spec/DD/20100524/DI\" xmlns:tns=\"http://www.activiti.org/test\" xmlns:xsd=\"http://www.w3.org/2001/XMLSchema\" xmlns:xsi=\"http://www.w3.org/2001/XMLSchema-instance\" expressionLanguage=\"http://www.w3.org/1999/XPath\" id=\"m1588685470672\" name=\"\" targetNamespace=\"http://www.activiti.org/test\" typeLanguage=\"http://www.w3.org/2001/XMLSchema\">\n  <process id=\"myProcess_1\" isClosed=\"false\" isExecutable=\"true\" processType=\"None\">\n    <startEvent id=\"_2\" name=\"StartEvent\"/>\n    <endEvent id=\"_3\" name=\"EndEvent\"/>\n    <serviceTask activiti:class=\"ee.ut.cs.se.mt.tirechange.ui.RaiseTheJackTask\" activiti:exclusive=\"true\" id=\"_4\" name=\"Step2 Task\"/>\n    <sequenceFlow id=\"_5\" sourceRef=\"_2\" targetRef=\"_4\"/>\n    <sequenceFlow id=\"_6\" sourceRef=\"_4\" targetRef=\"_3\"/>\n  </process>\n  <bpmndi:BPMNDiagram documentation=\"background=#3C3F41;count=1;horizontalcount=1;orientation=0;width=842.4;height=1195.2;imageableWidth=832.4;imageableHeight=1185.2;imageableX=5.0;imageableY=5.0\" id=\"Diagram-_1\" name=\"New Diagram\">\n    <bpmndi:BPMNPlane bpmnElement=\"myProcess_1\">\n      <bpmndi:BPMNShape bpmnElement=\"_2\" id=\"Shape-_2\">\n        <omgdc:Bounds height=\"32.0\" width=\"32.0\" x=\"120.0\" y=\"120.0\"/>\n        <bpmndi:BPMNLabel>\n          <omgdc:Bounds height=\"32.0\" width=\"32.0\" x=\"0.0\" y=\"0.0\"/>\n        </bpmndi:BPMNLabel>\n      </bpmndi:BPMNShape>\n      <bpmndi:BPMNShape bpmnElement=\"_3\" id=\"Shape-_3\">\n        <omgdc:Bounds height=\"32.0\" width=\"32.0\" x=\"370.0\" y=\"135.0\"/>\n        <bpmndi:BPMNLabel>\n          <omgdc:Bounds height=\"32.0\" width=\"32.0\" x=\"0.0\" y=\"0.0\"/>\n        </bpmndi:BPMNLabel>\n      </bpmndi:BPMNShape>\n      <bpmndi:BPMNShape bpmnElement=\"_4\" id=\"Shape-_4\">\n        <omgdc:Bounds height=\"55.0\" width=\"85.0\" x=\"215.0\" y=\"115.0\"/>\n        <bpmndi:BPMNLabel>\n          <omgdc:Bounds height=\"55.0\" width=\"85.0\" x=\"0.0\" y=\"0.0\"/>\n        </bpmndi:BPMNLabel>\n      </bpmndi:BPMNShape>\n      <bpmndi:BPMNEdge bpmnElement=\"_5\" id=\"BPMNEdge__5\" sourceElement=\"_2\" targetElement=\"_4\">\n        <omgdi:waypoint x=\"152.0\" y=\"136.0\"/>\n        <omgdi:waypoint x=\"215.0\" y=\"142.5\"/>\n        <bpmndi:BPMNLabel>\n          <omgdc:Bounds height=\"0.0\" width=\"0.0\" x=\"0.0\" y=\"0.0\"/>\n        </bpmndi:BPMNLabel>\n      </bpmndi:BPMNEdge>\n      <bpmndi:BPMNEdge bpmnElement=\"_6\" id=\"BPMNEdge__6\" sourceElement=\"_4\" targetElement=\"_3\">\n        <omgdi:waypoint x=\"300.0\" y=\"142.5\"/>\n        <omgdi:waypoint x=\"370.0\" y=\"151.0\"/>\n        <bpmndi:BPMNLabel>\n          <omgdc:Bounds height=\"0.0\" width=\"0.0\" x=\"0.0\" y=\"0.0\"/>\n        </bpmndi:BPMNLabel>\n      </bpmndi:BPMNEdge>\n    </bpmndi:BPMNPlane>\n  </bpmndi:BPMNDiagram>\n</definitions>\n"
        },
        {
          "name": "raise_the_jack_other",
          "duration": 1,
          "conditions": ["car_is_parked"],
          "effects": ["jack_raised"],
          "totalCost": 1,
          "requirements": ["has_other_car"],
          "bpmn": "<?xml version=\"1.0\" encoding=\"UTF-8\" standalone=\"yes\"?>\n<definitions xmlns=\"http://www.omg.org/spec/BPMN/20100524/MODEL\" xmlns:activiti=\"http://activiti.org/bpmn\" xmlns:bpmndi=\"http://www.omg.org/spec/BPMN/20100524/DI\" xmlns:omgdc=\"http://www.omg.org/spec/DD/20100524/DC\" xmlns:omgdi=\"http://www.omg.org/spec/DD/20100524/DI\" xmlns:tns=\"http://www.activiti.org/test\" xmlns:xsd=\"http://www.w3.org/2001/XMLSchema\" xmlns:xsi=\"http://www.w3.org/2001/XMLSchema-instance\" expressionLanguage=\"http://www.w3.org/1999/XPath\" id=\"m1588685470672\" name=\"\" targetNamespace=\"http://www.activiti.org/test\" typeLanguage=\"http://www.w3.org/2001/XMLSchema\">\n  <process id=\"myProcess_1\" isClosed=\"false\" isExecutable=\"true\" processType=\"None\">\n    <startEvent id=\"_2\" name=\"StartEvent\"/>\n    <endEvent id=\"_3\" name=\"EndEvent\"/>\n    <serviceTask activiti:class=\"ee.ut.cs.se.mt.tirechange.ui.RaiseTheJackOtherTask\" activiti:exclusive=\"true\" id=\"_4\" name=\"Step2 Task\"/>\n    <sequenceFlow id=\"_5\" sourceRef=\"_2\" targetRef=\"_4\"/>\n    <sequenceFlow id=\"_6\" sourceRef=\"_4\" targetRef=\"_3\"/>\n  </process>\n  <bpmndi:BPMNDiagram documentation=\"background=#3C3F41;count=1;horizontalcount=1;orientation=0;width=842.4;height=1195.2;imageableWidth=832.4;imageableHeight=1185.2;imageableX=5.0;imageableY=5.0\" id=\"Diagram-_1\" name=\"New Diagram\">\n    <bpmndi:BPMNPlane bpmnElement=\"myProcess_1\">\n      <bpmndi:BPMNShape bpmnElement=\"_2\" id=\"Shape-_2\">\n        <omgdc:Bounds height=\"32.0\" width=\"32.0\" x=\"120.0\" y=\"120.0\"/>\n        <bpmndi:BPMNLabel>\n          <omgdc:Bounds height=\"32.0\" width=\"32.0\" x=\"0.0\" y=\"0.0\"/>\n        </bpmndi:BPMNLabel>\n      </bpmndi:BPMNShape>\n      <bpmndi:BPMNShape bpmnElement=\"_3\" id=\"Shape-_3\">\n        <omgdc:Bounds height=\"32.0\" width=\"32.0\" x=\"370.0\" y=\"135.0\"/>\n        <bpmndi:BPMNLabel>\n          <omgdc:Bounds height=\"32.0\" width=\"32.0\" x=\"0.0\" y=\"0.0\"/>\n        </bpmndi:BPMNLabel>\n      </bpmndi:BPMNShape>\n      <bpmndi:BPMNShape bpmnElement=\"_4\" id=\"Shape-_4\">\n        <omgdc:Bounds height=\"55.0\" width=\"85.0\" x=\"215.0\" y=\"115.0\"/>\n        <bpmndi:BPMNLabel>\n          <omgdc:Bounds height=\"55.0\" width=\"85.0\" x=\"0.0\" y=\"0.0\"/>\n        </bpmndi:BPMNLabel>\n      </bpmndi:BPMNShape>\n      <bpmndi:BPMNEdge bpmnElement=\"_5\" id=\"BPMNEdge__5\" sourceElement=\"_2\" targetElement=\"_4\">\n        <omgdi:waypoint x=\"152.0\" y=\"136.0\"/>\n        <omgdi:waypoint x=\"215.0\" y=\"142.5\"/>\n        <bpmndi:BPMNLabel>\n          <omgdc:Bounds height=\"0.0\" width=\"0.0\" x=\"0.0\" y=\"0.0\"/>\n        </bpmndi:BPMNLabel>\n      </bpmndi:BPMNEdge>\n      <bpmndi:BPMNEdge bpmnElement=\"_6\" id=\"BPMNEdge__6\" sourceElement=\"_4\" targetElement=\"_3\">\n        <omgdi:waypoint x=\"300.0\" y=\"142.5\"/>\n        <omgdi:waypoint x=\"370.0\" y=\"151.0\"/>\n        <bpmndi:BPMNLabel>\n          <omgdc:Bounds height=\"0.0\" width=\"0.0\" x=\"0.0\" y=\"0.0\"/>\n        </bpmndi:BPMNLabel>\n      </bpmndi:BPMNEdge>\n    </bpmndi:BPMNPlane>\n  </bpmndi:BPMNDiagram>\n</definitions>\n"
        },
        {
          "name": "remove_the_hubcap",
          "duration": 1,
          "conditions": ["jack_raised"],
          "effects": ["hubcap_removed"],
          "totalCost": 2,
          "requirements": [],
          "bpmn": "<?xml version=\"1.0\" encoding=\"UTF-8\" standalone=\"yes\"?>\n<definitions xmlns=\"http://www.omg.org/spec/BPMN/20100524/MODEL\" xmlns:activiti=\"http://activiti.org/bpmn\" xmlns:bpmndi=\"http://www.omg.org/spec/BPMN/20100524/DI\" xmlns:omgdc=\"http://www.omg.org/spec/DD/20100524/DC\" xmlns:omgdi=\"http://www.omg.org/spec/DD/20100524/DI\" xmlns:tns=\"http://www.activiti.org/test\" xmlns:xsd=\"http://www.w3.org/2001/XMLSchema\" xmlns:xsi=\"http://www.w3.org/2001/XMLSchema-instance\" expressionLanguage=\"http://www.w3.org/1999/XPath\" id=\"m1588685470672\" name=\"\" targetNamespace=\"http://www.activiti.org/test\" typeLanguage=\"http://www.w3.org/2001/XMLSchema\">\n  <process id=\"myProcess_1\" isClosed=\"false\" isExecutable=\"true\" processType=\"None\">\n    <startEvent id=\"_2\" name=\"StartEvent\"/>\n    <endEvent id=\"_3\" name=\"EndEvent\"/>\n    <serviceTask activiti:class=\"ee.ut.cs.se.mt.tirechange.ui.RemoveHubcapTask\" activiti:exclusive=\"true\" id=\"_4\" name=\"Step3 Task\"/>\n    <sequenceFlow id=\"_5\" sourceRef=\"_2\" targetRef=\"_4\"/>\n    <sequenceFlow id=\"_6\" sourceRef=\"_4\" targetRef=\"_3\"/>\n  </process>\n  <bpmndi:BPMNDiagram documentation=\"background=#3C3F41;count=1;horizontalcount=1;orientation=0;width=842.4;height=1195.2;imageableWidth=832.4;imageableHeight=1185.2;imageableX=5.0;imageableY=5.0\" id=\"Diagram-_1\" name=\"New Diagram\">\n    <bpmndi:BPMNPlane bpmnElement=\"myProcess_1\">\n      <bpmndi:BPMNShape bpmnElement=\"_2\" id=\"Shape-_2\">\n        <omgdc:Bounds height=\"32.0\" width=\"32.0\" x=\"120.0\" y=\"120.0\"/>\n        <bpmndi:BPMNLabel>\n          <omgdc:Bounds height=\"32.0\" width=\"32.0\" x=\"0.0\" y=\"0.0\"/>\n        </bpmndi:BPMNLabel>\n      </bpmndi:BPMNShape>\n      <bpmndi:BPMNShape bpmnElement=\"_3\" id=\"Shape-_3\">\n        <omgdc:Bounds height=\"32.0\" width=\"32.0\" x=\"370.0\" y=\"135.0\"/>\n        <bpmndi:BPMNLabel>\n          <omgdc:Bounds height=\"32.0\" width=\"32.0\" x=\"0.0\" y=\"0.0\"/>\n        </bpmndi:BPMNLabel>\n      </bpmndi:BPMNShape>\n      <bpmndi:BPMNShape bpmnElement=\"_4\" id=\"Shape-_4\">\n        <omgdc:Bounds height=\"55.0\" width=\"85.0\" x=\"215.0\" y=\"115.0\"/>\n        <bpmndi:BPMNLabel>\n          <omgdc:Bounds height=\"55.0\" width=\"85.0\" x=\"0.0\" y=\"0.0\"/>\n        </bpmndi:BPMNLabel>\n      </bpmndi:BPMNShape>\n      <bpmndi:BPMNEdge bpmnElement=\"_5\" id=\"BPMNEdge__5\" sourceElement=\"_2\" targetElement=\"_4\">\n        <omgdi:waypoint x=\"152.0\" y=\"136.0\"/>\n        <omgdi:waypoint x=\"215.0\" y=\"142.5\"/>\n        <bpmndi:BPMNLabel>\n          <omgdc:Bounds height=\"0.0\" width=\"0.0\" x=\"0.0\" y=\"0.0\"/>\n        </bpmndi:BPMNLabel>\n      </bpmndi:BPMNEdge>\n      <bpmndi:BPMNEdge bpmnElement=\"_6\" id=\"BPMNEdge__6\" sourceElement=\"_4\" targetElement=\"_3\">\n        <omgdi:waypoint x=\"300.0\" y=\"142.5\"/>\n        <omgdi:waypoint x=\"370.0\" y=\"151.0\"/>\n        <bpmndi:BPMNLabel>\n          <omgdc:Bounds height=\"0.0\" width=\"0.0\" x=\"0.0\" y=\"0.0\"/>\n        </bpmndi:BPMNLabel>\n      </bpmndi:BPMNEdge>\n    </bpmndi:BPMNPlane>\n  </bpmndi:BPMNDiagram>\n</definitions>\n"
        },
        {
          "name": "remove_the_hubcap_image",
          "duration": 2,
          "conditions": ["jack_raised"],
          "effects": ["hubcap_removed"],
          "totalCost": 1,
          "requirements": [],
          "bpmn": "<?xml version=\"1.0\" encoding=\"UTF-8\" standalone=\"yes\"?>\n<definitions xmlns=\"http://www.omg.org/spec/BPMN/20100524/MODEL\" xmlns:activiti=\"http://activiti.org/bpmn\" xmlns:bpmndi=\"http://www.omg.org/spec/BPMN/20100524/DI\" xmlns:omgdc=\"http://www.omg.org/spec/DD/20100524/DC\" xmlns:omgdi=\"http://www.omg.org/spec/DD/20100524/DI\" xmlns:tns=\"http://www.activiti.org/test\" xmlns:xsd=\"http://www.w3.org/2001/XMLSchema\" xmlns:xsi=\"http://www.w3.org/2001/XMLSchema-instance\" expressionLanguage=\"http://www.w3.org/1999/XPath\" id=\"m1588685470672\" name=\"\" targetNamespace=\"http://www.activiti.org/test\" typeLanguage=\"http://www.w3.org/2001/XMLSchema\">\n  <process id=\"myProcess_1\" isClosed=\"false\" isExecutable=\"true\" processType=\"None\">\n    <startEvent id=\"_2\" name=\"StartEvent\"/>\n    <endEvent id=\"_3\" name=\"EndEvent\"/>\n    <serviceTask activiti:class=\"ee.ut.cs.se.mt.tirechange.ui.RemoveHubcapImageTask\" activiti:exclusive=\"true\" id=\"_4\" name=\"Step3 Task\"/>\n    <sequenceFlow id=\"_5\" sourceRef=\"_2\" targetRef=\"_4\"/>\n    <sequenceFlow id=\"_6\" sourceRef=\"_4\" targetRef=\"_3\"/>\n  </process>\n  <bpmndi:BPMNDiagram documentation=\"background=#3C3F41;count=1;horizontalcount=1;orientation=0;width=842.4;height=1195.2;imageableWidth=832.4;imageableHeight=1185.2;imageableX=5.0;imageableY=5.0\" id=\"Diagram-_1\" name=\"New Diagram\">\n    <bpmndi:BPMNPlane bpmnElement=\"myProcess_1\">\n      <bpmndi:BPMNShape bpmnElement=\"_2\" id=\"Shape-_2\">\n        <omgdc:Bounds height=\"32.0\" width=\"32.0\" x=\"120.0\" y=\"120.0\"/>\n        <bpmndi:BPMNLabel>\n          <omgdc:Bounds height=\"32.0\" width=\"32.0\" x=\"0.0\" y=\"0.0\"/>\n        </bpmndi:BPMNLabel>\n      </bpmndi:BPMNShape>\n      <bpmndi:BPMNShape bpmnElement=\"_3\" id=\"Shape-_3\">\n        <omgdc:Bounds height=\"32.0\" width=\"32.0\" x=\"370.0\" y=\"135.0\"/>\n        <bpmndi:BPMNLabel>\n          <omgdc:Bounds height=\"32.0\" width=\"32.0\" x=\"0.0\" y=\"0.0\"/>\n        </bpmndi:BPMNLabel>\n      </bpmndi:BPMNShape>\n      <bpmndi:BPMNShape bpmnElement=\"_4\" id=\"Shape-_4\">\n        <omgdc:Bounds height=\"55.0\" width=\"85.0\" x=\"215.0\" y=\"115.0\"/>\n        <bpmndi:BPMNLabel>\n          <omgdc:Bounds height=\"55.0\" width=\"85.0\" x=\"0.0\" y=\"0.0\"/>\n        </bpmndi:BPMNLabel>\n      </bpmndi:BPMNShape>\n      <bpmndi:BPMNEdge bpmnElement=\"_5\" id=\"BPMNEdge__5\" sourceElement=\"_2\" targetElement=\"_4\">\n        <omgdi:waypoint x=\"152.0\" y=\"136.0\"/>\n        <omgdi:waypoint x=\"215.0\" y=\"142.5\"/>\n        <bpmndi:BPMNLabel>\n          <omgdc:Bounds height=\"0.0\" width=\"0.0\" x=\"0.0\" y=\"0.0\"/>\n        </bpmndi:BPMNLabel>\n      </bpmndi:BPMNEdge>\n      <bpmndi:BPMNEdge bpmnElement=\"_6\" id=\"BPMNEdge__6\" sourceElement=\"_4\" targetElement=\"_3\">\n        <omgdi:waypoint x=\"300.0\" y=\"142.5\"/>\n        <omgdi:waypoint x=\"370.0\" y=\"151.0\"/>\n        <bpmndi:BPMNLabel>\n          <omgdc:Bounds height=\"0.0\" width=\"0.0\" x=\"0.0\" y=\"0.0\"/>\n        </bpmndi:BPMNLabel>\n      </bpmndi:BPMNEdge>\n    </bpmndi:BPMNPlane>\n  </bpmndi:BPMNDiagram>\n</definitions>\n"
        },
        {
          "name": "remove_the_nuts",
          "duration": 1,
          "conditions": ["hubcap_removed"],
          "effects": ["nuts_removed"],
          "totalCost": 1,
          "requirements": ["has_modern_unibody"],
          "bpmn": "<?xml version=\"1.0\" encoding=\"UTF-8\" standalone=\"yes\"?>\n<definitions xmlns=\"http://www.omg.org/spec/BPMN/20100524/MODEL\" xmlns:activiti=\"http://activiti.org/bpmn\" xmlns:bpmndi=\"http://www.omg.org/spec/BPMN/20100524/DI\" xmlns:omgdc=\"http://www.omg.org/spec/DD/20100524/DC\" xmlns:omgdi=\"http://www.omg.org/spec/DD/20100524/DI\" xmlns:tns=\"http://www.activiti.org/test\" xmlns:xsd=\"http://www.w3.org/2001/XMLSchema\" xmlns:xsi=\"http://www.w3.org/2001/XMLSchema-instance\" expressionLanguage=\"http://www.w3.org/1999/XPath\" id=\"m1588685470672\" name=\"\" targetNamespace=\"http://www.activiti.org/test\" typeLanguage=\"http://www.w3.org/2001/XMLSchema\">\n  <process id=\"myProcess_1\" isClosed=\"false\" isExecutable=\"true\" processType=\"None\">\n    <startEvent id=\"_2\" name=\"StartEvent\"/>\n    <endEvent id=\"_3\" name=\"EndEvent\"/>\n    <serviceTask activiti:class=\"ee.ut.cs.se.mt.tirechange.ui.RemoveTheNutsTask\" activiti:exclusive=\"true\" id=\"_4\" name=\"Step4 Task\"/>\n    <sequenceFlow id=\"_5\" sourceRef=\"_2\" targetRef=\"_4\"/>\n    <sequenceFlow id=\"_6\" sourceRef=\"_4\" targetRef=\"_3\"/>\n  </process>\n  <bpmndi:BPMNDiagram documentation=\"background=#3C3F41;count=1;horizontalcount=1;orientation=0;width=842.4;height=1195.2;imageableWidth=832.4;imageableHeight=1185.2;imageableX=5.0;imageableY=5.0\" id=\"Diagram-_1\" name=\"New Diagram\">\n    <bpmndi:BPMNPlane bpmnElement=\"myProcess_1\">\n      <bpmndi:BPMNShape bpmnElement=\"_2\" id=\"Shape-_2\">\n        <omgdc:Bounds height=\"32.0\" width=\"32.0\" x=\"120.0\" y=\"120.0\"/>\n        <bpmndi:BPMNLabel>\n          <omgdc:Bounds height=\"32.0\" width=\"32.0\" x=\"0.0\" y=\"0.0\"/>\n        </bpmndi:BPMNLabel>\n      </bpmndi:BPMNShape>\n      <bpmndi:BPMNShape bpmnElement=\"_3\" id=\"Shape-_3\">\n        <omgdc:Bounds height=\"32.0\" width=\"32.0\" x=\"370.0\" y=\"135.0\"/>\n        <bpmndi:BPMNLabel>\n          <omgdc:Bounds height=\"32.0\" width=\"32.0\" x=\"0.0\" y=\"0.0\"/>\n        </bpmndi:BPMNLabel>\n      </bpmndi:BPMNShape>\n      <bpmndi:BPMNShape bpmnElement=\"_4\" id=\"Shape-_4\">\n        <omgdc:Bounds height=\"55.0\" width=\"85.0\" x=\"215.0\" y=\"115.0\"/>\n        <bpmndi:BPMNLabel>\n          <omgdc:Bounds height=\"55.0\" width=\"85.0\" x=\"0.0\" y=\"0.0\"/>\n        </bpmndi:BPMNLabel>\n      </bpmndi:BPMNShape>\n      <bpmndi:BPMNEdge bpmnElement=\"_5\" id=\"BPMNEdge__5\" sourceElement=\"_2\" targetElement=\"_4\">\n        <omgdi:waypoint x=\"152.0\" y=\"136.0\"/>\n        <omgdi:waypoint x=\"215.0\" y=\"142.5\"/>\n        <bpmndi:BPMNLabel>\n          <omgdc:Bounds height=\"0.0\" width=\"0.0\" x=\"0.0\" y=\"0.0\"/>\n        </bpmndi:BPMNLabel>\n      </bpmndi:BPMNEdge>\n      <bpmndi:BPMNEdge bpmnElement=\"_6\" id=\"BPMNEdge__6\" sourceElement=\"_4\" targetElement=\"_3\">\n        <omgdi:waypoint x=\"300.0\" y=\"142.5\"/>\n        <omgdi:waypoint x=\"370.0\" y=\"151.0\"/>\n        <bpmndi:BPMNLabel>\n          <omgdc:Bounds height=\"0.0\" width=\"0.0\" x=\"0.0\" y=\"0.0\"/>\n        </bpmndi:BPMNLabel>\n      </bpmndi:BPMNEdge>\n    </bpmndi:BPMNPlane>\n  </bpmndi:BPMNDiagram>\n</definitions>\n"
        },
        {
          "name": "remove_the_nuts_other",
          "duration": 1,
          "conditions": ["hubcap_removed"],
          "effects": ["nuts_removed"],
          "totalCost": 1,
          "requirements": ["has_other_car"],
          "bpmn": "<?xml version=\"1.0\" encoding=\"UTF-8\" standalone=\"yes\"?>\n<definitions xmlns=\"http://www.omg.org/spec/BPMN/20100524/MODEL\" xmlns:activiti=\"http://activiti.org/bpmn\" xmlns:bpmndi=\"http://www.omg.org/spec/BPMN/20100524/DI\" xmlns:omgdc=\"http://www.omg.org/spec/DD/20100524/DC\" xmlns:omgdi=\"http://www.omg.org/spec/DD/20100524/DI\" xmlns:tns=\"http://www.activiti.org/test\" xmlns:xsd=\"http://www.w3.org/2001/XMLSchema\" xmlns:xsi=\"http://www.w3.org/2001/XMLSchema-instance\" expressionLanguage=\"http://www.w3.org/1999/XPath\" id=\"m1588685470672\" name=\"\" targetNamespace=\"http://www.activiti.org/test\" typeLanguage=\"http://www.w3.org/2001/XMLSchema\">\n  <process id=\"myProcess_1\" isClosed=\"false\" isExecutable=\"true\" processType=\"None\">\n    <startEvent id=\"_2\" name=\"StartEvent\"/>\n    <endEvent id=\"_3\" name=\"EndEvent\"/>\n    <serviceTask activiti:class=\"ee.ut.cs.se.mt.tirechange.ui.RemoveTheNutsOtherTask\" activiti:exclusive=\"true\" id=\"_4\" name=\"Step4 Task\"/>\n    <sequenceFlow id=\"_5\" sourceRef=\"_2\" targetRef=\"_4\"/>\n    <sequenceFlow id=\"_6\" sourceRef=\"_4\" targetRef=\"_3\"/>\n  </process>\n  <bpmndi:BPMNDiagram documentation=\"background=#3C3F41;count=1;horizontalcount=1;orientation=0;width=842.4;height=1195.2;imageableWidth=832.4;imageableHeight=1185.2;imageableX=5.0;imageableY=5.0\" id=\"Diagram-_1\" name=\"New Diagram\">\n    <bpmndi:BPMNPlane bpmnElement=\"myProcess_1\">\n      <bpmndi:BPMNShape bpmnElement=\"_2\" id=\"Shape-_2\">\n        <omgdc:Bounds height=\"32.0\" width=\"32.0\" x=\"120.0\" y=\"120.0\"/>\n        <bpmndi:BPMNLabel>\n          <omgdc:Bounds height=\"32.0\" width=\"32.0\" x=\"0.0\" y=\"0.0\"/>\n        </bpmndi:BPMNLabel>\n      </bpmndi:BPMNShape>\n      <bpmndi:BPMNShape bpmnElement=\"_3\" id=\"Shape-_3\">\n        <omgdc:Bounds height=\"32.0\" width=\"32.0\" x=\"370.0\" y=\"135.0\"/>\n        <bpmndi:BPMNLabel>\n          <omgdc:Bounds height=\"32.0\" width=\"32.0\" x=\"0.0\" y=\"0.0\"/>\n        </bpmndi:BPMNLabel>\n      </bpmndi:BPMNShape>\n      <bpmndi:BPMNShape bpmnElement=\"_4\" id=\"Shape-_4\">\n        <omgdc:Bounds height=\"55.0\" width=\"85.0\" x=\"215.0\" y=\"115.0\"/>\n        <bpmndi:BPMNLabel>\n          <omgdc:Bounds height=\"55.0\" width=\"85.0\" x=\"0.0\" y=\"0.0\"/>\n        </bpmndi:BPMNLabel>\n      </bpmndi:BPMNShape>\n      <bpmndi:BPMNEdge bpmnElement=\"_5\" id=\"BPMNEdge__5\" sourceElement=\"_2\" targetElement=\"_4\">\n        <omgdi:waypoint x=\"152.0\" y=\"136.0\"/>\n        <omgdi:waypoint x=\"215.0\" y=\"142.5\"/>\n        <bpmndi:BPMNLabel>\n          <omgdc:Bounds height=\"0.0\" width=\"0.0\" x=\"0.0\" y=\"0.0\"/>\n        </bpmndi:BPMNLabel>\n      </bpmndi:BPMNEdge>\n      <bpmndi:BPMNEdge bpmnElement=\"_6\" id=\"BPMNEdge__6\" sourceElement=\"_4\" targetElement=\"_3\">\n        <omgdi:waypoint x=\"300.0\" y=\"142.5\"/>\n        <omgdi:waypoint x=\"370.0\" y=\"151.0\"/>\n        <bpmndi:BPMNLabel>\n          <omgdc:Bounds height=\"0.0\" width=\"0.0\" x=\"0.0\" y=\"0.0\"/>\n        </bpmndi:BPMNLabel>\n      </bpmndi:BPMNEdge>\n    </bpmndi:BPMNPlane>\n  </bpmndi:BPMNDiagram>\n</definitions>\n"
        },
        {
          "name": "place_spare_tire",
          "duration": 1,
          "conditions": ["nuts_removed"],
          "effects": ["spare_tire_placed"],
          "totalCost": 2,
          "requirements": [],
          "bpmn": "<?xml version=\"1.0\" encoding=\"UTF-8\" standalone=\"yes\"?>\n<definitions xmlns=\"http://www.omg.org/spec/BPMN/20100524/MODEL\" xmlns:activiti=\"http://activiti.org/bpmn\" xmlns:bpmndi=\"http://www.omg.org/spec/BPMN/20100524/DI\" xmlns:omgdc=\"http://www.omg.org/spec/DD/20100524/DC\" xmlns:omgdi=\"http://www.omg.org/spec/DD/20100524/DI\" xmlns:tns=\"http://www.activiti.org/test\" xmlns:xsd=\"http://www.w3.org/2001/XMLSchema\" xmlns:xsi=\"http://www.w3.org/2001/XMLSchema-instance\" expressionLanguage=\"http://www.w3.org/1999/XPath\" id=\"m1588685470672\" name=\"\" targetNamespace=\"http://www.activiti.org/test\" typeLanguage=\"http://www.w3.org/2001/XMLSchema\">\n  <process id=\"myProcess_1\" isClosed=\"false\" isExecutable=\"true\" processType=\"None\">\n    <startEvent id=\"_2\" name=\"StartEvent\"/>\n    <endEvent id=\"_3\" name=\"EndEvent\"/>\n    <serviceTask activiti:class=\"ee.ut.cs.se.mt.tirechange.ui.PlaceSpareTireTask\" activiti:exclusive=\"true\" id=\"_4\" name=\"Step5 Task\"/>\n    <sequenceFlow id=\"_5\" sourceRef=\"_2\" targetRef=\"_4\"/>\n    <sequenceFlow id=\"_6\" sourceRef=\"_4\" targetRef=\"_3\"/>\n  </process>\n  <bpmndi:BPMNDiagram documentation=\"background=#3C3F41;count=1;horizontalcount=1;orientation=0;width=842.4;height=1195.2;imageableWidth=832.4;imageableHeight=1185.2;imageableX=5.0;imageableY=5.0\" id=\"Diagram-_1\" name=\"New Diagram\">\n    <bpmndi:BPMNPlane bpmnElement=\"myProcess_1\">\n      <bpmndi:BPMNShape bpmnElement=\"_2\" id=\"Shape-_2\">\n        <omgdc:Bounds height=\"32.0\" width=\"32.0\" x=\"120.0\" y=\"120.0\"/>\n        <bpmndi:BPMNLabel>\n          <omgdc:Bounds height=\"32.0\" width=\"32.0\" x=\"0.0\" y=\"0.0\"/>\n        </bpmndi:BPMNLabel>\n      </bpmndi:BPMNShape>\n      <bpmndi:BPMNShape bpmnElement=\"_3\" id=\"Shape-_3\">\n        <omgdc:Bounds height=\"32.0\" width=\"32.0\" x=\"370.0\" y=\"135.0\"/>\n        <bpmndi:BPMNLabel>\n          <omgdc:Bounds height=\"32.0\" width=\"32.0\" x=\"0.0\" y=\"0.0\"/>\n        </bpmndi:BPMNLabel>\n      </bpmndi:BPMNShape>\n      <bpmndi:BPMNShape bpmnElement=\"_4\" id=\"Shape-_4\">\n        <omgdc:Bounds height=\"55.0\" width=\"85.0\" x=\"215.0\" y=\"115.0\"/>\n        <bpmndi:BPMNLabel>\n          <omgdc:Bounds height=\"55.0\" width=\"85.0\" x=\"0.0\" y=\"0.0\"/>\n        </bpmndi:BPMNLabel>\n      </bpmndi:BPMNShape>\n      <bpmndi:BPMNEdge bpmnElement=\"_5\" id=\"BPMNEdge__5\" sourceElement=\"_2\" targetElement=\"_4\">\n        <omgdi:waypoint x=\"152.0\" y=\"136.0\"/>\n        <omgdi:waypoint x=\"215.0\" y=\"142.5\"/>\n        <bpmndi:BPMNLabel>\n          <omgdc:Bounds height=\"0.0\" width=\"0.0\" x=\"0.0\" y=\"0.0\"/>\n        </bpmndi:BPMNLabel>\n      </bpmndi:BPMNEdge>\n      <bpmndi:BPMNEdge bpmnElement=\"_6\" id=\"BPMNEdge__6\" sourceElement=\"_4\" targetElement=\"_3\">\n        <omgdi:waypoint x=\"300.0\" y=\"142.5\"/>\n        <omgdi:waypoint x=\"370.0\" y=\"151.0\"/>\n        <bpmndi:BPMNLabel>\n          <omgdc:Bounds height=\"0.0\" width=\"0.0\" x=\"0.0\" y=\"0.0\"/>\n        </bpmndi:BPMNLabel>\n      </bpmndi:BPMNEdge>\n    </bpmndi:BPMNPlane>\n  </bpmndi:BPMNDiagram>\n</definitions>\n"
        },
        {
          "name": "place_spare_tire_image",
          "duration": 2,
          "conditions": ["nuts_removed"],
          "effects": ["spare_tire_placed"],
          "totalCost": 1,
          "requirements": [],
          "bpmn": "<?xml version=\"1.0\" encoding=\"UTF-8\" standalone=\"yes\"?>\n<definitions xmlns=\"http://www.omg.org/spec/BPMN/20100524/MODEL\" xmlns:activiti=\"http://activiti.org/bpmn\" xmlns:bpmndi=\"http://www.omg.org/spec/BPMN/20100524/DI\" xmlns:omgdc=\"http://www.omg.org/spec/DD/20100524/DC\" xmlns:omgdi=\"http://www.omg.org/spec/DD/20100524/DI\" xmlns:tns=\"http://www.activiti.org/test\" xmlns:xsd=\"http://www.w3.org/2001/XMLSchema\" xmlns:xsi=\"http://www.w3.org/2001/XMLSchema-instance\" expressionLanguage=\"http://www.w3.org/1999/XPath\" id=\"m1588685470672\" name=\"\" targetNamespace=\"http://www.activiti.org/test\" typeLanguage=\"http://www.w3.org/2001/XMLSchema\">\n  <process id=\"myProcess_1\" isClosed=\"false\" isExecutable=\"true\" processType=\"None\">\n    <startEvent id=\"_2\" name=\"StartEvent\"/>\n    <endEvent id=\"_3\" name=\"EndEvent\"/>\n    <serviceTask activiti:class=\"ee.ut.cs.se.mt.tirechange.ui.PlaceSpareTireImageTask\" activiti:exclusive=\"true\" id=\"_4\" name=\"Step5 Task\"/>\n    <sequenceFlow id=\"_5\" sourceRef=\"_2\" targetRef=\"_4\"/>\n    <sequenceFlow id=\"_6\" sourceRef=\"_4\" targetRef=\"_3\"/>\n  </process>\n  <bpmndi:BPMNDiagram documentation=\"background=#3C3F41;count=1;horizontalcount=1;orientation=0;width=842.4;height=1195.2;imageableWidth=832.4;imageableHeight=1185.2;imageableX=5.0;imageableY=5.0\" id=\"Diagram-_1\" name=\"New Diagram\">\n    <bpmndi:BPMNPlane bpmnElement=\"myProcess_1\">\n      <bpmndi:BPMNShape bpmnElement=\"_2\" id=\"Shape-_2\">\n        <omgdc:Bounds height=\"32.0\" width=\"32.0\" x=\"120.0\" y=\"120.0\"/>\n        <bpmndi:BPMNLabel>\n          <omgdc:Bounds height=\"32.0\" width=\"32.0\" x=\"0.0\" y=\"0.0\"/>\n        </bpmndi:BPMNLabel>\n      </bpmndi:BPMNShape>\n      <bpmndi:BPMNShape bpmnElement=\"_3\" id=\"Shape-_3\">\n        <omgdc:Bounds height=\"32.0\" width=\"32.0\" x=\"370.0\" y=\"135.0\"/>\n        <bpmndi:BPMNLabel>\n          <omgdc:Bounds height=\"32.0\" width=\"32.0\" x=\"0.0\" y=\"0.0\"/>\n        </bpmndi:BPMNLabel>\n      </bpmndi:BPMNShape>\n      <bpmndi:BPMNShape bpmnElement=\"_4\" id=\"Shape-_4\">\n        <omgdc:Bounds height=\"55.0\" width=\"85.0\" x=\"215.0\" y=\"115.0\"/>\n        <bpmndi:BPMNLabel>\n          <omgdc:Bounds height=\"55.0\" width=\"85.0\" x=\"0.0\" y=\"0.0\"/>\n        </bpmndi:BPMNLabel>\n      </bpmndi:BPMNShape>\n      <bpmndi:BPMNEdge bpmnElement=\"_5\" id=\"BPMNEdge__5\" sourceElement=\"_2\" targetElement=\"_4\">\n        <omgdi:waypoint x=\"152.0\" y=\"136.0\"/>\n        <omgdi:waypoint x=\"215.0\" y=\"142.5\"/>\n        <bpmndi:BPMNLabel>\n          <omgdc:Bounds height=\"0.0\" width=\"0.0\" x=\"0.0\" y=\"0.0\"/>\n        </bpmndi:BPMNLabel>\n      </bpmndi:BPMNEdge>\n      <bpmndi:BPMNEdge bpmnElement=\"_6\" id=\"BPMNEdge__6\" sourceElement=\"_4\" targetElement=\"_3\">\n        <omgdi:waypoint x=\"300.0\" y=\"142.5\"/>\n        <omgdi:waypoint x=\"370.0\" y=\"151.0\"/>\n        <bpmndi:BPMNLabel>\n          <omgdc:Bounds height=\"0.0\" width=\"0.0\" x=\"0.0\" y=\"0.0\"/>\n        </bpmndi:BPMNLabel>\n      </bpmndi:BPMNEdge>\n    </bpmndi:BPMNPlane>\n  </bpmndi:BPMNDiagram>\n</definitions>\n"
        },
        {
          "name": "tighten_the_nuts",
          "duration": 1,
          "conditions": ["spare_tire_placed"],
          "effects": ["nuts_tighten"],
          "totalCost": 2,
          "requirements": [],
          "bpmn": "<?xml version=\"1.0\" encoding=\"UTF-8\" standalone=\"yes\"?>\n<definitions xmlns=\"http://www.omg.org/spec/BPMN/20100524/MODEL\" xmlns:activiti=\"http://activiti.org/bpmn\" xmlns:bpmndi=\"http://www.omg.org/spec/BPMN/20100524/DI\" xmlns:omgdc=\"http://www.omg.org/spec/DD/20100524/DC\" xmlns:omgdi=\"http://www.omg.org/spec/DD/20100524/DI\" xmlns:tns=\"http://www.activiti.org/test\" xmlns:xsd=\"http://www.w3.org/2001/XMLSchema\" xmlns:xsi=\"http://www.w3.org/2001/XMLSchema-instance\" expressionLanguage=\"http://www.w3.org/1999/XPath\" id=\"m1588685470672\" name=\"\" targetNamespace=\"http://www.activiti.org/test\" typeLanguage=\"http://www.w3.org/2001/XMLSchema\">\n  <process id=\"myProcess_1\" isClosed=\"false\" isExecutable=\"true\" processType=\"None\">\n    <startEvent id=\"_2\" name=\"StartEvent\"/>\n    <endEvent id=\"_3\" name=\"EndEvent\"/>\n    <serviceTask activiti:class=\"ee.ut.cs.se.mt.tirechange.ui.TightenTheNutsTask\" activiti:exclusive=\"true\" id=\"_4\" name=\"Step6 Task\"/>\n    <sequenceFlow id=\"_5\" sourceRef=\"_2\" targetRef=\"_4\"/>\n    <sequenceFlow id=\"_6\" sourceRef=\"_4\" targetRef=\"_3\"/>\n  </process>\n  <bpmndi:BPMNDiagram documentation=\"background=#3C3F41;count=1;horizontalcount=1;orientation=0;width=842.4;height=1195.2;imageableWidth=832.4;imageableHeight=1185.2;imageableX=5.0;imageableY=5.0\" id=\"Diagram-_1\" name=\"New Diagram\">\n    <bpmndi:BPMNPlane bpmnElement=\"myProcess_1\">\n      <bpmndi:BPMNShape bpmnElement=\"_2\" id=\"Shape-_2\">\n        <omgdc:Bounds height=\"32.0\" width=\"32.0\" x=\"120.0\" y=\"120.0\"/>\n        <bpmndi:BPMNLabel>\n          <omgdc:Bounds height=\"32.0\" width=\"32.0\" x=\"0.0\" y=\"0.0\"/>\n        </bpmndi:BPMNLabel>\n      </bpmndi:BPMNShape>\n      <bpmndi:BPMNShape bpmnElement=\"_3\" id=\"Shape-_3\">\n        <omgdc:Bounds height=\"32.0\" width=\"32.0\" x=\"370.0\" y=\"135.0\"/>\n        <bpmndi:BPMNLabel>\n          <omgdc:Bounds height=\"32.0\" width=\"32.0\" x=\"0.0\" y=\"0.0\"/>\n        </bpmndi:BPMNLabel>\n      </bpmndi:BPMNShape>\n      <bpmndi:BPMNShape bpmnElement=\"_4\" id=\"Shape-_4\">\n        <omgdc:Bounds height=\"55.0\" width=\"85.0\" x=\"215.0\" y=\"115.0\"/>\n        <bpmndi:BPMNLabel>\n          <omgdc:Bounds height=\"55.0\" width=\"85.0\" x=\"0.0\" y=\"0.0\"/>\n        </bpmndi:BPMNLabel>\n      </bpmndi:BPMNShape>\n      <bpmndi:BPMNEdge bpmnElement=\"_5\" id=\"BPMNEdge__5\" sourceElement=\"_2\" targetElement=\"_4\">\n        <omgdi:waypoint x=\"152.0\" y=\"136.0\"/>\n        <omgdi:waypoint x=\"215.0\" y=\"142.5\"/>\n        <bpmndi:BPMNLabel>\n          <omgdc:Bounds height=\"0.0\" width=\"0.0\" x=\"0.0\" y=\"0.0\"/>\n        </bpmndi:BPMNLabel>\n      </bpmndi:BPMNEdge>\n      <bpmndi:BPMNEdge bpmnElement=\"_6\" id=\"BPMNEdge__6\" sourceElement=\"_4\" targetElement=\"_3\">\n        <omgdi:waypoint x=\"300.0\" y=\"142.5\"/>\n        <omgdi:waypoint x=\"370.0\" y=\"151.0\"/>\n        <bpmndi:BPMNLabel>\n          <omgdc:Bounds height=\"0.0\" width=\"0.0\" x=\"0.0\" y=\"0.0\"/>\n        </bpmndi:BPMNLabel>\n      </bpmndi:BPMNEdge>\n    </bpmndi:BPMNPlane>\n  </bpmndi:BPMNDiagram>\n</definitions>\n"
        },
        {
          "name": "tighten_the_nuts_image",
          "duration": 2,
          "conditions": ["spare_tire_placed"],
          "effects": ["nuts_tighten"],
          "totalCost": 1,
          "requirements": [],
          "bpmn": "<?xml version=\"1.0\" encoding=\"UTF-8\" standalone=\"yes\"?>\n<definitions xmlns=\"http://www.omg.org/spec/BPMN/20100524/MODEL\" xmlns:activiti=\"http://activiti.org/bpmn\" xmlns:bpmndi=\"http://www.omg.org/spec/BPMN/20100524/DI\" xmlns:omgdc=\"http://www.omg.org/spec/DD/20100524/DC\" xmlns:omgdi=\"http://www.omg.org/spec/DD/20100524/DI\" xmlns:tns=\"http://www.activiti.org/test\" xmlns:xsd=\"http://www.w3.org/2001/XMLSchema\" xmlns:xsi=\"http://www.w3.org/2001/XMLSchema-instance\" expressionLanguage=\"http://www.w3.org/1999/XPath\" id=\"m1588685470672\" name=\"\" targetNamespace=\"http://www.activiti.org/test\" typeLanguage=\"http://www.w3.org/2001/XMLSchema\">\n  <process id=\"myProcess_1\" isClosed=\"false\" isExecutable=\"true\" processType=\"None\">\n    <startEvent id=\"_2\" name=\"StartEvent\"/>\n    <endEvent id=\"_3\" name=\"EndEvent\"/>\n    <serviceTask activiti:class=\"ee.ut.cs.se.mt.tirechange.ui.TightenTheNutsImageTask\" activiti:exclusive=\"true\" id=\"_4\" name=\"Step6 Task\"/>\n    <sequenceFlow id=\"_5\" sourceRef=\"_2\" targetRef=\"_4\"/>\n    <sequenceFlow id=\"_6\" sourceRef=\"_4\" targetRef=\"_3\"/>\n  </process>\n  <bpmndi:BPMNDiagram documentation=\"background=#3C3F41;count=1;horizontalcount=1;orientation=0;width=842.4;height=1195.2;imageableWidth=832.4;imageableHeight=1185.2;imageableX=5.0;imageableY=5.0\" id=\"Diagram-_1\" name=\"New Diagram\">\n    <bpmndi:BPMNPlane bpmnElement=\"myProcess_1\">\n      <bpmndi:BPMNShape bpmnElement=\"_2\" id=\"Shape-_2\">\n        <omgdc:Bounds height=\"32.0\" width=\"32.0\" x=\"120.0\" y=\"120.0\"/>\n        <bpmndi:BPMNLabel>\n          <omgdc:Bounds height=\"32.0\" width=\"32.0\" x=\"0.0\" y=\"0.0\"/>\n        </bpmndi:BPMNLabel>\n      </bpmndi:BPMNShape>\n      <bpmndi:BPMNShape bpmnElement=\"_3\" id=\"Shape-_3\">\n        <omgdc:Bounds height=\"32.0\" width=\"32.0\" x=\"370.0\" y=\"135.0\"/>\n        <bpmndi:BPMNLabel>\n          <omgdc:Bounds height=\"32.0\" width=\"32.0\" x=\"0.0\" y=\"0.0\"/>\n        </bpmndi:BPMNLabel>\n      </bpmndi:BPMNShape>\n      <bpmndi:BPMNShape bpmnElement=\"_4\" id=\"Shape-_4\">\n        <omgdc:Bounds height=\"55.0\" width=\"85.0\" x=\"215.0\" y=\"115.0\"/>\n        <bpmndi:BPMNLabel>\n          <omgdc:Bounds height=\"55.0\" width=\"85.0\" x=\"0.0\" y=\"0.0\"/>\n        </bpmndi:BPMNLabel>\n      </bpmndi:BPMNShape>\n      <bpmndi:BPMNEdge bpmnElement=\"_5\" id=\"BPMNEdge__5\" sourceElement=\"_2\" targetElement=\"_4\">\n        <omgdi:waypoint x=\"152.0\" y=\"136.0\"/>\n        <omgdi:waypoint x=\"215.0\" y=\"142.5\"/>\n        <bpmndi:BPMNLabel>\n          <omgdc:Bounds height=\"0.0\" width=\"0.0\" x=\"0.0\" y=\"0.0\"/>\n        </bpmndi:BPMNLabel>\n      </bpmndi:BPMNEdge>\n      <bpmndi:BPMNEdge bpmnElement=\"_6\" id=\"BPMNEdge__6\" sourceElement=\"_4\" targetElement=\"_3\">\n        <omgdi:waypoint x=\"300.0\" y=\"142.5\"/>\n        <omgdi:waypoint x=\"370.0\" y=\"151.0\"/>\n        <bpmndi:BPMNLabel>\n          <omgdc:Bounds height=\"0.0\" width=\"0.0\" x=\"0.0\" y=\"0.0\"/>\n        </bpmndi:BPMNLabel>\n      </bpmndi:BPMNEdge>\n    </bpmndi:BPMNPlane>\n  </bpmndi:BPMNDiagram>\n</definitions>\n"
        },
        {
          "name": "lower_the_car",
          "duration": 1,
          "conditions": ["nuts_tighten"],
          "effects": ["car_is_lowered"],
          "totalCost": 2,
          "requirements": [],
          "bpmn": "<?xml version=\"1.0\" encoding=\"UTF-8\" standalone=\"yes\"?>\n<definitions xmlns=\"http://www.omg.org/spec/BPMN/20100524/MODEL\" xmlns:activiti=\"http://activiti.org/bpmn\" xmlns:bpmndi=\"http://www.omg.org/spec/BPMN/20100524/DI\" xmlns:omgdc=\"http://www.omg.org/spec/DD/20100524/DC\" xmlns:omgdi=\"http://www.omg.org/spec/DD/20100524/DI\" xmlns:tns=\"http://www.activiti.org/test\" xmlns:xsd=\"http://www.w3.org/2001/XMLSchema\" xmlns:xsi=\"http://www.w3.org/2001/XMLSchema-instance\" expressionLanguage=\"http://www.w3.org/1999/XPath\" id=\"m1588685470672\" name=\"\" targetNamespace=\"http://www.activiti.org/test\" typeLanguage=\"http://www.w3.org/2001/XMLSchema\">\n  <process id=\"myProcess_1\" isClosed=\"false\" isExecutable=\"true\" processType=\"None\">\n    <startEvent id=\"_2\" name=\"StartEvent\"/>\n    <endEvent id=\"_3\" name=\"EndEvent\"/>\n    <serviceTask activiti:class=\"ee.ut.cs.se.mt.tirechange.ui.LowerTheCarTask\" activiti:exclusive=\"true\" id=\"_4\" name=\"Step7 Task\"/>\n    <sequenceFlow id=\"_5\" sourceRef=\"_2\" targetRef=\"_4\"/>\n    <sequenceFlow id=\"_6\" sourceRef=\"_4\" targetRef=\"_3\"/>\n  </process>\n  <bpmndi:BPMNDiagram documentation=\"background=#3C3F41;count=1;horizontalcount=1;orientation=0;width=842.4;height=1195.2;imageableWidth=832.4;imageableHeight=1185.2;imageableX=5.0;imageableY=5.0\" id=\"Diagram-_1\" name=\"New Diagram\">\n    <bpmndi:BPMNPlane bpmnElement=\"myProcess_1\">\n      <bpmndi:BPMNShape bpmnElement=\"_2\" id=\"Shape-_2\">\n        <omgdc:Bounds height=\"32.0\" width=\"32.0\" x=\"120.0\" y=\"120.0\"/>\n        <bpmndi:BPMNLabel>\n          <omgdc:Bounds height=\"32.0\" width=\"32.0\" x=\"0.0\" y=\"0.0\"/>\n        </bpmndi:BPMNLabel>\n      </bpmndi:BPMNShape>\n      <bpmndi:BPMNShape bpmnElement=\"_3\" id=\"Shape-_3\">\n        <omgdc:Bounds height=\"32.0\" width=\"32.0\" x=\"370.0\" y=\"135.0\"/>\n        <bpmndi:BPMNLabel>\n          <omgdc:Bounds height=\"32.0\" width=\"32.0\" x=\"0.0\" y=\"0.0\"/>\n        </bpmndi:BPMNLabel>\n      </bpmndi:BPMNShape>\n      <bpmndi:BPMNShape bpmnElement=\"_4\" id=\"Shape-_4\">\n        <omgdc:Bounds height=\"55.0\" width=\"85.0\" x=\"215.0\" y=\"115.0\"/>\n        <bpmndi:BPMNLabel>\n          <omgdc:Bounds height=\"55.0\" width=\"85.0\" x=\"0.0\" y=\"0.0\"/>\n        </bpmndi:BPMNLabel>\n      </bpmndi:BPMNShape>\n      <bpmndi:BPMNEdge bpmnElement=\"_5\" id=\"BPMNEdge__5\" sourceElement=\"_2\" targetElement=\"_4\">\n        <omgdi:waypoint x=\"152.0\" y=\"136.0\"/>\n        <omgdi:waypoint x=\"215.0\" y=\"142.5\"/>\n        <bpmndi:BPMNLabel>\n          <omgdc:Bounds height=\"0.0\" width=\"0.0\" x=\"0.0\" y=\"0.0\"/>\n        </bpmndi:BPMNLabel>\n      </bpmndi:BPMNEdge>\n      <bpmndi:BPMNEdge bpmnElement=\"_6\" id=\"BPMNEdge__6\" sourceElement=\"_4\" targetElement=\"_3\">\n        <omgdi:waypoint x=\"300.0\" y=\"142.5\"/>\n        <omgdi:waypoint x=\"370.0\" y=\"151.0\"/>\n        <bpmndi:BPMNLabel>\n          <omgdc:Bounds height=\"0.0\" width=\"0.0\" x=\"0.0\" y=\"0.0\"/>\n        </bpmndi:BPMNLabel>\n      </bpmndi:BPMNEdge>\n    </bpmndi:BPMNPlane>\n  </bpmndi:BPMNDiagram>\n</definitions>\n"
        },
        {
          "name": "check_tire_pressure_manually",
          "duration": 3,
          "conditions": ["car_is_lowered"],
          "effects": ["tire_is_changed"],
          "totalCost": 1,
          "requirements": [],
          "bpmn": "<?xml version=\"1.0\" encoding=\"UTF-8\" standalone=\"yes\"?>\n<definitions xmlns=\"http://www.omg.org/spec/BPMN/20100524/MODEL\" xmlns:activiti=\"http://activiti.org/bpmn\" xmlns:bpmndi=\"http://www.omg.org/spec/BPMN/20100524/DI\" xmlns:omgdc=\"http://www.omg.org/spec/DD/20100524/DC\" xmlns:omgdi=\"http://www.omg.org/spec/DD/20100524/DI\" xmlns:tns=\"http://www.activiti.org/test\" xmlns:xsd=\"http://www.w3.org/2001/XMLSchema\" xmlns:xsi=\"http://www.w3.org/2001/XMLSchema-instance\" expressionLanguage=\"http://www.w3.org/1999/XPath\" id=\"m1588685470672\" name=\"\" targetNamespace=\"http://www.activiti.org/test\" typeLanguage=\"http://www.w3.org/2001/XMLSchema\">\n  <process id=\"myProcess_1\" isClosed=\"false\" isExecutable=\"true\" processType=\"None\">\n    <startEvent id=\"_2\" name=\"StartEvent\"/>\n    <endEvent id=\"_3\" name=\"EndEvent\"/>\n    <serviceTask activiti:class=\"ee.ut.cs.se.mt.tirechange.ui.TirePressureManuallyTask\" activiti:exclusive=\"true\" id=\"_4\" name=\"Step8 Task\"/>\n    <sequenceFlow id=\"_5\" sourceRef=\"_2\" targetRef=\"_4\"/>\n    <sequenceFlow id=\"_6\" sourceRef=\"_4\" targetRef=\"_3\"/>\n  </process>\n  <bpmndi:BPMNDiagram documentation=\"background=#3C3F41;count=1;horizontalcount=1;orientation=0;width=842.4;height=1195.2;imageableWidth=832.4;imageableHeight=1185.2;imageableX=5.0;imageableY=5.0\" id=\"Diagram-_1\" name=\"New Diagram\">\n    <bpmndi:BPMNPlane bpmnElement=\"myProcess_1\">\n      <bpmndi:BPMNShape bpmnElement=\"_2\" id=\"Shape-_2\">\n        <omgdc:Bounds height=\"32.0\" width=\"32.0\" x=\"120.0\" y=\"120.0\"/>\n        <bpmndi:BPMNLabel>\n          <omgdc:Bounds height=\"32.0\" width=\"32.0\" x=\"0.0\" y=\"0.0\"/>\n        </bpmndi:BPMNLabel>\n      </bpmndi:BPMNShape>\n      <bpmndi:BPMNShape bpmnElement=\"_3\" id=\"Shape-_3\">\n        <omgdc:Bounds height=\"32.0\" width=\"32.0\" x=\"370.0\" y=\"135.0\"/>\n        <bpmndi:BPMNLabel>\n          <omgdc:Bounds height=\"32.0\" width=\"32.0\" x=\"0.0\" y=\"0.0\"/>\n        </bpmndi:BPMNLabel>\n      </bpmndi:BPMNShape>\n      <bpmndi:BPMNShape bpmnElement=\"_4\" id=\"Shape-_4\">\n        <omgdc:Bounds height=\"55.0\" width=\"85.0\" x=\"215.0\" y=\"115.0\"/>\n        <bpmndi:BPMNLabel>\n          <omgdc:Bounds height=\"55.0\" width=\"85.0\" x=\"0.0\" y=\"0.0\"/>\n        </bpmndi:BPMNLabel>\n      </bpmndi:BPMNShape>\n      <bpmndi:BPMNEdge bpmnElement=\"_5\" id=\"BPMNEdge__5\" sourceElement=\"_2\" targetElement=\"_4\">\n        <omgdi:waypoint x=\"152.0\" y=\"136.0\"/>\n        <omgdi:waypoint x=\"215.0\" y=\"142.5\"/>\n        <bpmndi:BPMNLabel>\n          <omgdc:Bounds height=\"0.0\" width=\"0.0\" x=\"0.0\" y=\"0.0\"/>\n        </bpmndi:BPMNLabel>\n      </bpmndi:BPMNEdge>\n      <bpmndi:BPMNEdge bpmnElement=\"_6\" id=\"BPMNEdge__6\" sourceElement=\"_4\" targetElement=\"_3\">\n        <omgdi:waypoint x=\"300.0\" y=\"142.5\"/>\n        <omgdi:waypoint x=\"370.0\" y=\"151.0\"/>\n        <bpmndi:BPMNLabel>\n          <omgdc:Bounds height=\"0.0\" width=\"0.0\" x=\"0.0\" y=\"0.0\"/>\n        </bpmndi:BPMNLabel>\n      </bpmndi:BPMNEdge>\n    </bpmndi:BPMNPlane>\n  </bpmndi:BPMNDiagram>\n</definitions>\n"
        },
        {
          "name": "check_tire_pressure_bluetooth",
          "duration": 1,
          "conditions": ["car_is_lowered"],
          "effects": ["tire_is_changed"],
          "totalCost": 2,
          "requirements": ["has_bluetooth"],
          "bpmn": "<?xml version=\"1.0\" encoding=\"UTF-8\" standalone=\"yes\"?>\n<definitions xmlns=\"http://www.omg.org/spec/BPMN/20100524/MODEL\" xmlns:activiti=\"http://activiti.org/bpmn\" xmlns:bpmndi=\"http://www.omg.org/spec/BPMN/20100524/DI\" xmlns:omgdc=\"http://www.omg.org/spec/DD/20100524/DC\" xmlns:omgdi=\"http://www.omg.org/spec/DD/20100524/DI\" xmlns:tns=\"http://www.activiti.org/test\" xmlns:xsd=\"http://www.w3.org/2001/XMLSchema\" xmlns:xsi=\"http://www.w3.org/2001/XMLSchema-instance\" expressionLanguage=\"http://www.w3.org/1999/XPath\" id=\"m1588685470672\" name=\"\" targetNamespace=\"http://www.activiti.org/test\" typeLanguage=\"http://www.w3.org/2001/XMLSchema\">\n  <process id=\"myProcess_1\" isClosed=\"false\" isExecutable=\"true\" processType=\"None\">\n    <startEvent id=\"_2\" name=\"StartEvent\"/>\n    <endEvent id=\"_3\" name=\"EndEvent\"/>\n    <serviceTask activiti:class=\"ee.ut.cs.se.mt.tirechange.ui.TirePressureBluetoothTask\" activiti:exclusive=\"true\" id=\"_4\" name=\"Step8 Task\"/>\n    <sequenceFlow id=\"_5\" sourceRef=\"_2\" targetRef=\"_4\"/>\n    <sequenceFlow id=\"_6\" sourceRef=\"_4\" targetRef=\"_3\"/>\n  </process>\n  <bpmndi:BPMNDiagram documentation=\"background=#3C3F41;count=1;horizontalcount=1;orientation=0;width=842.4;height=1195.2;imageableWidth=832.4;imageableHeight=1185.2;imageableX=5.0;imageableY=5.0\" id=\"Diagram-_1\" name=\"New Diagram\">\n    <bpmndi:BPMNPlane bpmnElement=\"myProcess_1\">\n      <bpmndi:BPMNShape bpmnElement=\"_2\" id=\"Shape-_2\">\n        <omgdc:Bounds height=\"32.0\" width=\"32.0\" x=\"120.0\" y=\"120.0\"/>\n        <bpmndi:BPMNLabel>\n          <omgdc:Bounds height=\"32.0\" width=\"32.0\" x=\"0.0\" y=\"0.0\"/>\n        </bpmndi:BPMNLabel>\n      </bpmndi:BPMNShape>\n      <bpmndi:BPMNShape bpmnElement=\"_3\" id=\"Shape-_3\">\n        <omgdc:Bounds height=\"32.0\" width=\"32.0\" x=\"370.0\" y=\"135.0\"/>\n        <bpmndi:BPMNLabel>\n          <omgdc:Bounds height=\"32.0\" width=\"32.0\" x=\"0.0\" y=\"0.0\"/>\n        </bpmndi:BPMNLabel>\n      </bpmndi:BPMNShape>\n      <bpmndi:BPMNShape bpmnElement=\"_4\" id=\"Shape-_4\">\n        <omgdc:Bounds height=\"55.0\" width=\"85.0\" x=\"215.0\" y=\"115.0\"/>\n        <bpmndi:BPMNLabel>\n          <omgdc:Bounds height=\"55.0\" width=\"85.0\" x=\"0.0\" y=\"0.0\"/>\n        </bpmndi:BPMNLabel>\n      </bpmndi:BPMNShape>\n      <bpmndi:BPMNEdge bpmnElement=\"_5\" id=\"BPMNEdge__5\" sourceElement=\"_2\" targetElement=\"_4\">\n        <omgdi:waypoint x=\"152.0\" y=\"136.0\"/>\n        <omgdi:waypoint x=\"215.0\" y=\"142.5\"/>\n        <bpmndi:BPMNLabel>\n          <omgdc:Bounds height=\"0.0\" width=\"0.0\" x=\"0.0\" y=\"0.0\"/>\n        </bpmndi:BPMNLabel>\n      </bpmndi:BPMNEdge>\n      <bpmndi:BPMNEdge bpmnElement=\"_6\" id=\"BPMNEdge__6\" sourceElement=\"_4\" targetElement=\"_3\">\n        <omgdi:waypoint x=\"300.0\" y=\"142.5\"/>\n        <omgdi:waypoint x=\"370.0\" y=\"151.0\"/>\n        <bpmndi:BPMNLabel>\n          <omgdc:Bounds height=\"0.0\" width=\"0.0\" x=\"0.0\" y=\"0.0\"/>\n        </bpmndi:BPMNLabel>\n      </bpmndi:BPMNEdge>\n    </bpmndi:BPMNPlane>\n  </bpmndi:BPMNDiagram>\n</definitions>\n"
        }
      ]
    }
  ]
}